GoHogwarts,Go to Hogwarts Study Room,G,Hogwarts
GoBed,Let's go back to bed.,B,Bed
GoStairs,Go up the stairs.,S,Stairs
GoBack,Let's retrace our steps.,G,Hogwarts
GoHallway,Check out the hallway.,H,Hallway
GoSnackShop,Let's grab something to eat.,C,SnackShop
GoUnnamedRoom,Enter the unnamed room.,U,UnnamedRoom
GoClass,Go to Class.,C,Class
GoSlytherin,Enter the Slytherin Living Area.,E,SlytherinRoom
GoBotherSlytherin,Escape into a room full of Quidditch gear.,Q,SlytherinQuidditch
GoSecretRoom,Escape into a small cubby whole.,R,SecretRoom